refV = 3926
0,  12.06,  14.31,  3892.00,  5.00 
1,  44.81,  45.69,  3891.00,  4.25 
2,  82.50,  83.56,  3889.81,  5.19 
3,  120.44,  120.31,  3889.06,  4.31 
4,  159.81,  162.94,  3888.69,  4.25 
5,  198.19,  199.19,  3887.38,  5.12 
6,  235.81,  237.75,  3889.94,  5.00 
7,  277.31,  277.56,  3890.62,  4.12 
8,  319.19,  316.81,  3889.31,  5.69 
9,  357.44,  357.06,  3891.44,  4.12 
10,  398.25,  398.00,  3891.38,  5.88 
11,  435.75,  439.50,  3890.25,  4.50 
12,  475.31,  479.12,  3891.19,  4.50 
13,  514.19,  517.88,  3890.00,  4.25 
14,  552.88,  554.38,  3889.56,  4.50 
15,  591.75,  593.50,  3891.00,  4.12 
16,  631.19,  632.00,  3892.62,  5.62 
17,  669.56,  671.94,  3891.62,  4.50 
18,  710.31,  712.44,  3890.94,  5.12 
19,  751.38,  753.25,  3890.75,  5.38 
20,  790.88,  791.25,  3892.50,  5.12 
21,  829.69,  830.38,  3892.06,  4.50 
22,  867.88,  869.56,  3890.31,  5.75 
23,  905.81,  907.12,  3891.12,  4.75 
24,  942.94,  944.81,  3891.62,  4.00 
25,  980.56,  982.31,  3882.19,  12.62 
26,  1021.25,  1024.50,  3853.06,  39.00 
27,  1065.00,  1065.38,  3789.56,  91.81 
28,  1103.44,  1104.94,  3677.69,  183.25 
29,  1145.81,  1147.06,  3501.06,  333.62 
30,  1185.38,  1184.75,  3245.44,  564.69 
31,  1224.62,  1222.56,  2892.00,  888.56 
32,  1261.19,  1261.62,  2412.12,  1328.31 
33,  1299.38,  1298.69,  1786.06,  1895.88 
34,  1335.69,  1338.75,  1037.75,  2565.12 
35,  1373.94,  1377.62,  288.88,  3231.19 
36,  1419.31,  1416.50,  163.12,  3340.75 
37,  1458.06,  1456.12,  128.88,  3371.06 
38,  1497.94,  1498.31,  110.00,  3387.31 
39,  1538.75,  1537.94,  98.38,  3396.50 
40,  1577.75,  1576.88,  92.94,  3404.88 
41,  1616.31,  1613.56,  88.50,  3409.44 
42,  1655.44,  1651.12,  84.31,  3413.06 
43,  1690.62,  1691.00,  82.62,  3415.62 
44,  1730.12,  1731.69,  79.69,  3415.38 
45,  1766.06,  1766.75,  78.62,  3420.38 
46,  1805.88,  1806.25,  77.38,  3420.56 
47,  1847.25,  1846.56,  75.31,  3421.12 
48,  1889.50,  1888.94,  74.50,  3422.81 
49,  1930.44,  1931.00,  74.62,  3422.88 
50,  1969.81,  1967.06,  72.25,  3424.38 
51,  2009.56,  2007.38,  73.50,  3425.56 
52,  2048.06,  2043.94,  71.62,  3424.31 
53,  2085.69,  2086.12,  73.06,  3423.69 
54,  2122.81,  2125.00,  72.75,  3426.06 
55,  2162.06,  2163.62,  72.50,  3426.06 
56,  2200.69,  2201.06,  73.94,  3426.88 
57,  2241.06,  2242.50,  72.38,  3427.25 
58,  2282.75,  2281.44,  70.81,  3426.88 
59,  2324.31,  2321.12,  71.44,  3427.44 
60,  2363.38,  2361.88,  71.94,  3426.12 
61,  2401.25,  2399.50,  73.44,  3427.12 
62,  2438.00,  2436.31,  74.19,  3428.19 
63,  2475.62,  2474.50,  72.44,  3428.06 
64,  2514.75,  2511.88,  73.88,  3427.69 
65,  2555.50,  2551.19,  73.81,  3427.81 
66,  2593.31,  2593.06,  72.75,  3429.62 
67,  2634.19,  2631.00,  70.44,  3430.00 
68,  2675.31,  2672.94,  71.19,  3429.31 
69,  2717.00,  2713.75,  69.31,  3427.38 
70,  2755.06,  2752.25,  68.75,  3430.81 
71,  2793.62,  2790.31,  73.69,  3431.31 
72,  2833.75,  2829.44,  76.38,  3428.50 
73,  2870.69,  2866.00,  77.75,  3430.44 
74,  2907.81,  2905.56,  76.31,  3430.50 
75,  2949.38,  2944.00,  74.56,  3428.94 
76,  2988.38,  2984.94,  75.56,  3431.50 
77,  3026.81,  3024.69,  73.44,  3429.62 
78,  3068.38,  3064.75,  72.62,  3428.38 
79,  3108.56,  3104.88,  73.31,  3429.25 
80,  3150.19,  3145.62,  73.06,  3429.62 
81,  3187.44,  3183.00,  73.69,  3429.12 
82,  3226.75,  3220.44,  73.81,  3430.12 
83,  3264.75,  3260.69,  74.12,  3429.88 
84,  3303.25,  3296.94,  73.44,  3432.31 
85,  3340.88,  3337.56,  75.19,  3429.56 
86,  3379.19,  3376.25,  74.19,  3429.56 
87,  3419.50,  3415.19,  73.69,  3430.56 
88,  3459.44,  3453.69,  72.44,  3432.81 
89,  3501.12,  3493.06,  71.94,  3429.75 
90,  3539.19,  3534.94,  71.25,  3431.69 
91,  3577.31,  3580.12,  71.94,  3431.06 
92,  3618.06,  3615.38,  73.38,  3430.19 
93,  3657.31,  3656.19,  76.38,  3432.38 
94,  3696.75,  3693.69,  75.31,  3429.62 
95,  3736.62,  3733.56,  75.94,  3433.44 
96,  3774.88,  3771.56,  77.88,  3431.19 
97,  3816.25,  3813.38,  75.50,  3432.12 
98,  3854.88,  3849.00,  76.12,  3429.56 
99,  3893.88,  3890.12,  76.81,  3432.25 
100,  3913.12,  3906.88,  76.25,  3432.31 
